{"miTabletop":
	[
		{"id":"TT001","name":"Catan","year":1995,"description":"Picture yourself in the era of discoveries: after a long voyage of great deprivation, your ships have finally reached the coast of an uncharted island. Its name shall be Catan! But you are not the only discoverer. Other fearless seafarers have also landed on the shores of Catan: the race to settle the island has begun!","noPlayers":"3-4","playTime":"10+","ages":"1-2 hours","publisher":"Kosmos","country":"Germany","latitude":48.774538,"longitude":9.188467},
		{"id":"TT002","name":"Monopoly","year":1935,"description":"The thrill of bankrupting an opponent, but it pays to play nice, because fortunes could change with the roll of the dice. Experience the ups and downs by collecting property colors sets to build houses, and maybe even upgrading to a hotel!","noPlayers":"2-8","playTime":"20-180 minutes","ages":"8+","publisher":"Hasbro","country":"United States","latitude":41.883736,"longitude":-71.352259},
		{"id":"TT003","name":"Eldritch Horror","year":2013,"description":"An ancient evil is stirring. You are part of a team of unlikely heroes engaged in an international struggle to stop the gathering darkness. To do so, you’ll have to defeat foul monsters, travel to Other Worlds, and solve obscure mysteries surrounding this unspeakable horror.","noPlayers":"1-8","playTime":"2-4 hours","ages":"14+","publisher":"Fantasy Flight Games","country":"United States","latitude":45.015417,"longitude":-93.183995},
		{"id":"TT004","name":"Magic: the Gathering","year":1993,"description":"Magic: The Gathering is a collectible and digital collectible card game created by Richard Garfield. Each game of Magic represents a battle between wizards known as planeswalkers who cast spells, use artifacts, and summon creatures.","noPlayers":"2+","playTime":"Varies","ages":"13+","publisher":"Hasbro","country":"United States","latitude":41.883736,"longitude":-71.352259},
		{"id":"TT005","name":"Hanabi","year":2010,"description":"Hanabi—named for the Japanese word for fireworks—is a cooperative game in which players try to create the perfect fireworks show by placing the cards on the table in the right order.","noPlayers":"2-5","playTime":"25 minutes","ages":"8+","publisher":"Asmodee","country":"France","latitude":48.761629,"longitude":2.065296}
	]
}